﻿[
  {
    "LogOutput": "Debug",
		"LogMethodTrace": false,
		"SaveConsolidatedCode": true,
		"ConsolidatedCodeLocation":  "ConsolidatedCode",
    "IgnoreCircularDependencies": "All",
    "CircularExceptions": [],
    "IgnoreModRequirements": "None",
    "ModRequirementExceptions": [],
    "IgnoreModConflicts": "None",
    "ModConflictExceptions": ["00000000-0000-0000-0000-00000000000A"]
  }
]